Shashwat Website - A1 Part 1, Dataset - Wages
…
  Wages <-read_csv("data/wages_edu.csv") %>% 
  janitor::clean_names(case = "snake")

Rows: 7425 Columns: 6
── Column specification ────────────────────────────────────────────────────────
Delimiter: ","
chr (2): sex, language
dbl (4): rownames, wages, education, age

ℹ Use `spec()` to retrieve the full column specification for this data.
ℹ Specify the column types or set `show_col_types = FALSE` to quiet this message.

Wages

# A tibble: 7,425 × 6
   rownames wages education   age sex    language
      <dbl> <dbl>     <dbl> <dbl> <chr>  <chr>   
 1        1  10.6      15      40 Male   English 
 2        2  11        13.2    19 Male   English 
 3        3  NA        16      49 Male   Other   
 4        4  17.8      14      46 Male   Other   
 5        5  NA         8      71 Male   English 
 6        6  14        16      50 Female English 
 7        7  NA        12      70 Female English 
 8        8  NA        14.5    42 Female English 
 9        9   8.2      15      31 Male   English 
10       10  NA        10      56 Female English 
# ℹ 7,415 more rows
…
Remove NAs in education, since values like 0 appeared to be intentionally recorded, whereas NA did not seem meaningful. This step removed approximately 121 entries.

Remove NAs in languages, based on the reasoning that special languages (such as sign language) would likely have been coded under “other”.

Wages_mod1 <- Wages %>%
  mutate(
    sex = as.factor(sex),
    language = as.factor(language)
  ) %>%
 
  dplyr::relocate(sex, language, age, education, wages, .after= rownames)
Wages_mod1

# A tibble: 7,425 × 6
   rownames sex    language   age education wages
      <dbl> <fct>  <fct>    <dbl>     <dbl> <dbl>
 1        1 Male   English     40      15    10.6
 2        2 Male   English     19      13.2  11  
 3        3 Male   Other       49      16    NA  
 4        4 Male   Other       46      14    17.8
 5        5 Male   English     71       8    NA  
 6        6 Female English     50      16    14  
 7        7 Female English     70      12    NA  
 8        8 Female English     42      14.5  NA  
 9        9 Male   English     31      15     8.2
10       10 Female English     56      10    NA  
# ℹ 7,415 more rows

Wages_mod2 <- Wages_mod1 %>% 
  tidyr::drop_na(education, language) 
  Wages_mod2

# A tibble: 7,125 × 6
   rownames sex    language   age education wages
      <dbl> <fct>  <fct>    <dbl>     <dbl> <dbl>
 1        1 Male   English     40      15    10.6
 2        2 Male   English     19      13.2  11  
 3        3 Male   Other       49      16    NA  
 4        4 Male   Other       46      14    17.8
 5        5 Male   English     71       8    NA  
 6        6 Female English     50      16    14  
 7        7 Female English     70      12    NA  
 8        8 Female English     42      14.5  NA  
 9        9 Male   English     31      15     8.2
10       10 Female English     56      10    NA  
# ℹ 7,115 more rows
…
